electronica/Laba1/code/runner/runner_out.vcd
$date
	Fri Sep 13 14:35:45 2024
$end
$version
	Icarus Verilog
$end
$timescale
	1ns
$end
$scope module runner_tb $end
$var wire 6 ! leds [5:0] $end
$var reg 1 " clk $end
$var reg 1 # reset $end
$scope module r $end
$var wire 1 " clk $end
$var wire 1 # reset $end
$var wire 6 $ leds [5:0] $end
$var reg 23 % counter [22:0] $end
$var reg 3 & led_counter [2:0] $end
$scope begin genblk1[0] $end
$var parameter 2 ' i $end
$upscope $end
$scope begin genblk1[1] $end
$var parameter 2 ( i $end
$upscope $end
$scope begin genblk1[2] $end
$var parameter 3 ) i $end
$upscope $end
$scope begin genblk1[3] $end
$var parameter 3 * i $end
$upscope $end
$scope begin genblk1[4] $end
$var parameter 4 + i $end
$upscope $end
$scope begin genblk1[5] $end
$var parameter 4 , i $end
$upscope $end
$upscope $end
$upscope $end
$enddefinitions $end
$comment Show the parameter values. $end
$dumpall
b101 ,
b100 +
b11 *
b10 )
b1 (
b0 '
$end
#0
$dumpvars
bx &
bx %
bx $
1#
0"
bx !
$end
#5
1"
#10
0"
#15
1"
#20
b0 !
b0 $
0"
0#
#25
b0 &
b0 %
1"
#30
0"
#35
1"
#40
b111110 !
b111110 $
0"
1#
#45
b1 %
1"
#50
0"
#55
b10 %
1"
#60
0"
#65
b11 %
1"
#70
0"
#75
b100 %
1"
#80
0"
#85
b101 %
1"
#90
0"
#95
b110 %
1"
#100
0"
#105
b111101 !
b111101 $
b1 &
b0 %
1"
#110
0"
#115
b1 %
1"
#120
0"
#125
b10 %
1"
#130
0"
#135
b11 %
1"
#140
0"
#145
b100 %
1"
#150
0"
#155
b101 %
1"
#160
0"
#165
b110 %
1"
#170
0"
#175
b111011 !
b111011 $
b10 &
b0 %
1"
#180
0"
#185
b1 %
1"
#190
0"
#195
b10 %
1"
#200
0"
#205
b11 %
1"
#210
0"
#215
b100 %
1"
#220
0"
#225
b101 %
1"
#230
0"
#235
b110 %
1"
#240
0"
#245
b110111 !
b110111 $
b11 &
b0 %
1"
#250
0"
#255
b1 %
1"
#260
0"
#265
b10 %
1"
#270
0"
#275
b11 %
1"
#280
0"
#285
b100 %
1"
#290
0"
#295
b101 %
1"
#300
0"
#305
b110 %
1"
#310
0"
#315
b101111 !
b101111 $
b100 &
b0 %
1"
#320
0"
#325
b1 %
1"
#330
0"
#335
b10 %
1"
#340
0"
#345
b11 %
1"
#350
0"
#355
b100 %
1"
#360
0"
#365
b101 %
1"
#370
0"
#375
b110 %
1"
#380
0"
#385
b11111 !
b11111 $
b101 &
b0 %
1"
#390
0"
#395
b1 %
1"
#400
0"
#405
b10 %
1"
#410
0"
#415
b11 %
1"
#420
0"
#425
b100 %
1"
#430
0"
#435
b101 %
1"
#440
0"
#445
b110 %
1"
#450
0"
#455
b111110 !
b111110 $
b0 &
b0 %
1"
#460
0"
#465
b1 %
1"
#470
0"
#475
b10 %
1"
#480
0"
#485
b11 %
1"
#490
0"
#495
b100 %
1"
#500
0"
#505
b101 %
1"
#510
0"
#515
b110 %
1"
#520
0"
#525
b111101 !
b111101 $
b1 &
b0 %
1"
#530
0"
#535
b1 %
1"
#540
0"
#545
b10 %
1"
#550
0"
#555
b11 %
1"
#560
0"
#565
b100 %
1"
#570
0"
#575
b101 %
1"
#580
0"
#585
b110 %
1"
#590
0"
#595
b111011 !
b111011 $
b10 &
b0 %
1"
#600
0"
#605
b1 %
1"
#610
0"
#615
b10 %
1"
#620
0"
#625
b11 %
1"
#630
0"
#635
b100 %
1"
#640
0"
#645
b101 %
1"
#650
0"
#655
b110 %
1"
#660
0"
#665
b110111 !
b110111 $
b11 &
b0 %
1"
#670
0"
#675
b1 %
1"
#680
0"
#685
b10 %
1"
#690
0"
#695
b11 %
1"
#700
0"
#705
b100 %
1"
#710
0"
#715
b101 %
1"
#720
0"
#725
b110 %
1"
#730
0"
#735
b101111 !
b101111 $
b100 &
b0 %
1"
#740
0"
#745
b1 %
1"
#750
0"
#755
b10 %
1"
#760
0"
#765
b11 %
1"
#770
0"
#775
b100 %
1"
#780
0"
#785
b101 %
1"
#790
0"
#795
b110 %
1"
#800
0"
#805
b11111 !
b11111 $
b101 &
b0 %
1"
#810
0"
#815
b1 %
1"
#820
0"
#825
b10 %
1"
#830
0"
#835
b11 %
1"
#840
0"
#845
b100 %
1"
#850
0"
#855
b101 %
1"
#860
0"
#865
b110 %
1"
#870
0"
#875
b111110 !
b111110 $
b0 &
b0 %
1"
#880
0"
#885
b1 %
1"
#890
0"
#895
b10 %
1"
#900
0"
#905
b11 %
1"
#910
0"
#915
b100 %
1"
#920
0"
#925
b101 %
1"
#930
0"
#935
b110 %
1"
#940
0"
#945
b111101 !
b111101 $
b1 &
b0 %
1"
#950
0"
#955
b1 %
1"
#960
0"
#965
b10 %
1"
#970
0"
#975
b11 %
1"
#980
0"
#985
b100 %
1"
#990
0"
#995
b101 %
1"
